chr15	4000000	6040000
chr15	4000000	6040000
chr15	12000000	18040000
chr15	12000000	18040000
chr15	14000000	20040000
chr15	14000000	20040000
chr15	16000000	22040000
chr15	16000000	22040000
chr15	16000000	22040000
chr15	16000000	22040000
chr15	16000000	22040000
chr15	16000000	22040000
chr15	18000000	24040000
chr15	18000000	24040000
chr15	18000000	24040000
chr15	18000000	24040000
chr15	18000000	24040000
chr15	18000000	24040000
chr15	20000000	26040000
chr15	20000000	26040000
chr15	20000000	26040000
chr15	20000000	26040000
chr15	22000000	28040000
chr15	22000000	28040000
chr15	22000000	28040000
chr15	22000000	28040000
chr15	24000000	30040000
chr15	24000000	30040000
chr15	24000000	30040000
chr15	24000000	30040000
chr15	26000000	32040000
chr15	26000000	32040000
chr15	26000000	32040000
chr15	26000000	32040000
chr15	28000000	34040000
chr15	28000000	34040000
chr15	28000000	34040000
chr15	28000000	34040000
chr15	30000000	36040000
chr15	30000000	36040000
chr15	30000000	36040000
chr15	30000000	36040000
chr15	32000000	38040000
chr15	32000000	38040000
chr15	32000000	38040000
chr15	32000000	38040000
chr15	78000000	84040000
chr15	78000000	84040000
chr15	78000000	84040000
chr15	78000000	84040000
chr15	80000000	86040000
chr15	80000000	86040000
chr15	80000000	86040000
chr15	80000000	86040000
chr15	82000000	88040000
chr15	82000000	88040000
chr15	82000000	88040000
chr15	82000000	88040000
chr15	84000000	90040000
chr15	84000000	90040000
chr15	98000000	102560000
chr15	98000000	102560000
chr15	98000000	102560000
chr15	98000000	102560000
