chr6	4000000	6040000
chr6	4000000	6040000
chr6	2000000	8040000
chr6	2000000	8040000
chr6	2000000	8040000
chr6	2000000	8040000
chr6	54000000	60040000
chr6	54000000	60040000
chr6	54000000	60040000
chr6	54000000	60040000
chr6	54000000	60040000
chr6	54000000	60040000
chr6	56000000	62040000
chr6	56000000	62040000
chr6	56000000	62040000
chr6	56000000	62040000
chr6	56000000	62040000
chr6	56000000	62040000
chr6	58000000	64040000
chr6	58000000	64040000
chr6	58000000	64040000
chr6	58000000	64040000
chr6	58000000	64040000
chr6	58000000	64040000
chr6	60000000	66040000
chr6	60000000	66040000
chr6	60000000	66040000
chr6	60000000	66040000
chr6	60000000	66040000
chr6	60000000	66040000
chr6	90000000	96040000
chr6	90000000	96040000
chr6	92000000	98040000
chr6	92000000	98040000
chr6	94000000	100040000
chr6	94000000	100040000
chr6	164000000	170040000
chr6	164000000	170040000
chr6	166000000	171120000
chr6	166000000	171120000
chr6	166000000	171120000
chr6	166000000	171120000
chr6	166000000	171120000
chr6	166000000	171120000
chr6	166000000	171120000
chr6	166000000	171120000
