chr7	4000000	6040000
chr7	4000000	6040000
chr7	2000000	8040000
chr7	2000000	8040000
chr7	2000000	8040000
chr7	2000000	8040000
chr7	52000000	58040000
chr7	52000000	58040000
chr7	52000000	58040000
chr7	52000000	58040000
chr7	54000000	60040000
chr7	54000000	60040000
chr7	54000000	60040000
chr7	54000000	60040000
chr7	54000000	60040000
chr7	54000000	60040000
chr7	56000000	62040000
chr7	56000000	62040000
chr7	56000000	62040000
chr7	56000000	62040000
chr7	56000000	62040000
chr7	56000000	62040000
chr7	58000000	64040000
chr7	58000000	64040000
chr7	58000000	64040000
chr7	58000000	64040000
chr7	58000000	64040000
chr7	58000000	64040000
chr7	60000000	66040000
chr7	60000000	66040000
chr7	60000000	66040000
chr7	60000000	66040000
chr7	60000000	66040000
chr7	60000000	66040000
chr7	62000000	68040000
chr7	62000000	68040000
chr7	62000000	68040000
chr7	62000000	68040000
chr7	64000000	70040000
chr7	68000000	74040000
chr7	68000000	74040000
chr7	70000000	76040000
chr7	70000000	76040000
chr7	70000000	76040000
chr7	70000000	76040000
chr7	72000000	78040000
chr7	72000000	78040000
chr7	72000000	78040000
chr7	72000000	78040000
chr7	74000000	80040000
chr7	74000000	80040000
chr7	74000000	80040000
chr7	74000000	80040000
chr7	98000000	104040000
chr7	98000000	104040000
chr7	100000000	106040000
chr7	100000000	106040000
chr7	102000000	108040000
chr7	102000000	108040000
chr7	126000000	132040000
chr7	126000000	132040000
chr7	128000000	134040000
chr7	128000000	134040000
chr7	130000000	136040000
chr7	130000000	136040000
chr7	138000000	144040000
chr7	138000000	144040000
chr7	138000000	144040000
chr7	138000000	144040000
chr7	140000000	146040000
chr7	140000000	146040000
chr7	140000000	146040000
chr7	140000000	146040000
chr7	142000000	148040000
chr7	142000000	148040000
chr7	142000000	148040000
chr7	142000000	148040000
chr7	150000000	156040000
chr7	150000000	156040000
chr7	152000000	158040000
chr7	152000000	158040000
chr7	154000000	159160000
chr7	154000000	159160000
chr7	154000000	159160000
chr7	154000000	159160000
chr7	154000000	159160000
chr7	154000000	159160000
