chrX	11620000	11820000
chrX	20620000	21000000
chrX	73720000	73920000
chrX	77300000	77420000
chrX	18880000	19220000
chrX	129760000	129960000
chrX	105400000	105800000
chrX	71660000	71760000
chrX	166660000	166800000
chrX	153560000	153740000
chrX	97120000	97240000
chrX	87660000	88120000
chrX	59180000	60000000
chrX	99820000	100400000
chrX	142560000	142680000
chrX	150480000	150660000
chrX	51120000	51380000
chrX	13180000	13700000
chrX	163920000	164520000
chrX	58500000	59180000
chrX	13080000	13220000
chrX	134440000	134600000
chrX	9620000	10200000
chrX	151900000	152360000
chrX	152900000	153160000
chrX	101640000	101800000
chrX	83960000	84500000
chrX	99720000	99820000
chrX	166800000	166900000
chrX	144320000	145480000
chrX	73680000	73960000
chrX	82800000	82900000
chrX	130520000	130760000
chrX	66740000	66860000
chrX	48500000	48680000
chrX	61440000	61580000
chrX	60480000	60620000
chrX	155340000	157460000
chrX	72180000	72440000
chrX	99300000	99680000
chrX	109240000	109380000
chrX	158420000	158620000
chrX	168940000	169320000
chrX	139960000	140300000
chrX	159400000	160140000
chrX	9620000	10100000
chrX	150660000	151000000
chrX	10180000	10640000
chrX	102140000	102500000
chrX	38920000	39260000
chrX	158400000	158580000
chrX	8260000	8720000
chrX	74240000	74440000
chrX	102660000	102940000
chrX	108560000	108700000
chrX	69940000	70100000
chrX	140640000	140780000
chrX	154000000	154160000
chrX	49000000	49120000
chrX	152020000	152180000
chrX	131920000	132020000
chrX	83900000	85640000
chrX	96960000	97380000
chrX	152000000	152220000
chrX	155620000	155740000
chrX	98980000	99700000
chrX	96920000	97040000
chrX	20060000	20340000
chrX	85020000	85180000
chrX	75760000	76220000
chrX	129280000	129720000
chrX	41660000	41820000
chrX	77160000	77300000
chrX	104000000	104120000
chrX	142340000	142540000
chrX	11340000	11460000
chrX	168120000	168400000
chrX	12660000	13100000
chrX	18260000	18440000
chrX	100400000	100500000
chrX	167280000	167380000
chrX	155420000	155620000
chrX	109380000	109740000
chrX	40060000	40160000
chrX	7420000	7720000
chrX	83800000	83980000
chrX	139220000	139320000
chrX	144320000	145400000
chrX	42360000	42480000
chrX	72480000	72640000
chrX	11200000	11340000
chrX	12160000	12480000
chrX	72660000	72820000
chrX	101340000	101440000
chrX	168960000	169100000
chrX	42240000	42540000
chrX	98640000	98980000
chrX	19220000	19980000
chrX	69140000	69260000
chrX	101800000	101940000
chrX	70340000	70580000
chrX	71400000	71960000
chrX	112920000	114580000
chrX	77400000	77500000
chrX	47960000	48540000
chrX	68320000	68760000
chrX	105800000	106220000
chrX	76820000	76960000
chrX	163140000	163820000
chrX	9040000	9200000
chrX	151640000	151800000
chrX	13700000	13860000
chrX	20960000	21060000
chrX	57400000	57900000
chrX	67060000	67180000
chrX	68680000	68820000
chrX	77800000	77900000
chrX	10340000	10600000
chrX	11660000	11820000
chrX	86420000	86780000
chrX	82420000	82540000
chrX	168720000	168940000
chrX	57900000	58400000
chrX	72080000	72280000
chrX	99120000	99300000
chrX	93280000	93580000
chrX	65720000	66660000
chrX	51080000	51180000
chrX	10620000	10720000
chrX	42540000	43440000
chrX	158620000	158760000
chrX	158940000	159420000
chrX	60460000	60680000
chrX	63740000	63860000
chrX	9620000	10040000
chrX	49060000	49260000
chrX	133480000	133580000
chrX	66280000	66420000
chrX	82800000	83220000
chrX	13920000	14020000
chrX	50600000	51040000
chrX	12660000	12860000
chrX	84100000	84200000
chrX	70900000	71000000
chrX	81960000	82100000
chrX	71400000	71640000
chrX	99600000	99720000
chrX	10660000	11100000
chrX	139360000	139840000
chrX	103640000	103940000
chrX	48600000	48700000
chrX	20160000	20620000
chrX	75880000	76060000
chrX	69560000	70100000
chrX	57480000	57600000
chrX	91460000	91620000
chrX	12060000	12160000
chrX	73960000	74080000
chrX	64260000	65720000
chrX	163720000	163820000
chrX	48160000	48280000
chrX	112680000	112880000
chrX	75900000	76220000
chrX	43440000	43580000
chrX	151940000	152360000
chrX	75100000	75380000
chrX	165340000	166160000
chrX	7300000	7720000
chrX	77500000	77640000
chrX	74460000	74960000
chrX	145160000	145300000
chrX	143440000	143700000
chrX	120280000	120920000
chrX	108880000	109020000
chrX	167260000	167480000
chrX	160420000	160580000
chrX	85640000	85940000
chrX	101940000	102160000
chrX	139840000	140440000
chrX	102100000	102200000
chrX	106440000	106540000
chrX	10720000	11100000
chrX	158400000	158540000
chrX	51180000	51360000
chrX	51040000	51380000
chrX	9320000	9520000
chrX	159300000	159440000
chrX	69900000	70340000
chrX	7300000	8260000
chrX	150480000	150580000
chrX	158040000	158180000
chrX	72180000	72520000
chrX	79340000	79540000
chrX	143700000	144320000
chrX	137160000	138200000
chrX	165960000	166080000
chrX	51180000	51300000
chrX	66420000	66560000
chrX	159420000	160000000
chrX	133240000	133340000
chrX	100480000	100620000
chrX	89820000	89940000
chrX	108340000	108480000
chrX	59980000	60460000
chrX	45340000	45440000
chrX	51480000	51700000
chrX	106020000	106140000
chrX	38800000	39260000
chrX	90980000	91080000
chrX	157720000	157840000
chrX	99700000	100500000
chrX	167040000	167140000
chrX	163960000	164080000
chrX	165220000	165320000
chrX	87740000	87860000
chrX	65060000	65160000
chrX	151940000	152240000
chrX	63160000	63280000
chrX	48260000	48420000
chrX	22020000	22180000
chrX	10620000	11180000
chrX	45440000	45600000
chrX	168660000	169320000
chrX	20160000	20360000
chrX	105900000	106020000
chrX	72080000	72200000
chrX	9040000	9160000
chrX	57380000	58520000
chrX	102940000	103180000
chrX	59180000	60460000
chrX	41400000	41640000
chrX	7720000	8260000
chrX	157460000	159380000
chrX	6620000	7100000
chrX	71060000	71320000
chrX	101120000	101340000
chrX	138800000	138900000
chrX	162160000	162280000
chrX	167360000	167500000
chrX	160600000	160760000
chrX	20360000	20540000
chrX	48260000	48480000
chrX	47440000	47660000
chrX	60460000	61120000
chrX	52120000	52360000
chrX	156740000	156860000
chrX	56640000	56800000
chrX	95720000	95940000
chrX	76500000	76600000
chrX	71960000	72240000
chrX	12860000	13200000
chrX	153400000	153520000
chrX	75620000	75720000
chrX	159400000	159600000
chrX	78460000	78580000
chrX	18160000	18280000
chrX	67300000	67400000
chrX	62500000	62600000
chrX	160160000	160440000
chrX	132800000	132900000
chrX	63540000	63660000
chrX	159600000	159980000
chrX	7160000	7320000
chrX	20000000	20160000
chrX	108720000	109260000
chrX	49340000	50540000
chrX	71060000	71400000
chrX	108700000	109380000
chrX	10040000	10220000
chrX	6660000	6760000
chrX	12520000	13180000
chrX	97560000	97660000
chrX	48700000	48820000
chrX	22180000	22300000
chrX	73780000	73920000
chrX	73000000	73560000
chrX	66860000	66980000
chrX	161520000	161820000
chrX	113040000	113220000
chrX	18880000	19160000
chrX	152360000	152900000
chrX	56360000	56540000
chrX	7320000	7440000
chrX	58960000	59060000
chrX	129240000	129820000
chrX	58580000	59180000
chrX	48700000	48880000
chrX	105120000	105400000
chrX	108120000	108240000
chrX	165360000	165500000
chrX	161400000	161720000
chrX	145540000	145640000
chrX	60120000	60220000
chrX	81840000	81960000
chrX	144520000	144620000
chrX	158980000	159260000
chrX	166160000	166500000
chrX	17620000	17720000
chrX	139180000	139380000
chrX	50660000	51000000
chrX	140280000	140460000
chrX	152920000	153060000
chrX	165480000	165620000
chrX	11820000	12060000
chrX	105120000	105320000
chrX	72920000	73040000
chrX	64420000	64540000
chrX	102240000	102460000
chrX	52160000	52360000
chrX	164520000	165140000
chrX	164140000	164480000
chrX	50320000	50440000
chrX	12860000	13080000
chrX	143080000	143460000
chrX	154000000	154240000
chrX	16740000	16840000
chrX	167460000	168140000
chrX	47980000	48260000
chrX	38500000	38800000
chrX	163020000	163140000
chrX	162900000	163020000
chrX	88680000	88780000
chrX	9040000	9620000
chrX	19980000	20620000
chrX	71960000	72160000
chrX	7100000	7280000
chrX	46620000	46720000
chrX	73140000	73400000
chrX	76660000	77820000
chrX	167260000	168660000
chrX	73500000	73700000
chrX	131720000	131820000
chrX	47840000	47960000
chrX	145360000	145520000
chrX	74460000	74880000
chrX	71120000	71320000
chrX	151800000	151940000
chrX	129960000	130480000
chrX	112940000	113200000
chrX	161840000	162460000
chrX	140080000	140280000
chrX	139760000	139860000
chrX	99420000	99520000
chrX	153380000	153740000
chrX	23560000	23680000
chrX	39260000	39420000
chrX	167240000	167380000
chrX	57700000	57800000
chrX	93300000	93420000
chrX	62860000	62960000
chrX	23380000	23540000
chrX	158940000	159300000
chrX	164520000	166160000
chrX	13520000	13680000
chrX	87660000	87860000
chrX	79000000	79100000
chrX	85480000	85640000
chrX	51460000	51740000
chrX	16880000	17240000
chrX	121440000	121560000
chrX	20160000	20300000
chrX	22020000	22140000
chrX	168400000	168660000
chrX	56860000	57060000
chrX	140780000	140900000
chrX	82300000	82600000
chrX	166960000	167140000
chrX	72940000	74440000
chrX	59240000	59600000
chrX	134060000	134380000
chrX	13240000	13480000
chrX	6940000	7100000
chrX	155060000	155360000
chrX	84440000	84580000
chrX	162280000	162400000
chrX	106220000	106440000
chrX	152360000	152840000
chrX	129860000	129980000
chrX	86780000	87560000
chrX	71480000	71580000
chrX	75660000	75780000
chrX	130480000	130620000
chrX	13460000	13680000
chrX	106460000	106760000
chrX	19140000	19240000
chrX	98960000	99120000
chrX	133720000	133900000
chrX	150980000	151120000
chrX	19560000	19960000
chrX	19760000	19920000
chrX	6760000	6860000
chrX	80280000	80420000
chrX	159620000	159880000
chrX	168120000	168660000
chrX	85180000	85320000
chrX	85340000	85480000
chrX	52080000	52360000
chrX	159960000	160140000
chrX	127560000	127660000
chrX	169340000	169760000
chrX	144420000	144520000
chrX	51400000	51760000
chrX	99120000	99600000
chrX	153160000	153380000
chrX	67700000	67800000
chrX	152220000	152360000
chrX	151180000	151340000
chrX	17080000	17220000
chrX	83220000	83740000
chrX	42280000	42380000
chrX	88420000	88520000
chrX	157460000	157720000
chrX	161400000	161520000
chrX	60680000	61100000
chrX	139920000	140400000
chrX	144360000	144680000
chrX	8260000	9040000
chrX	153740000	154000000
chrX	139920000	140300000
chrX	108700000	108860000
chrX	151820000	152360000
chrX	76240000	76600000
chrX	9740000	10100000
chrX	140000000	140280000
chrX	131600000	131720000
chrX	70580000	70720000
chrX	106580000	106680000
chrX	57400000	57700000
chrX	152900000	153380000
chrX	74080000	74240000
chrX	52400000	52720000
chrX	100620000	100760000
chrX	9340000	9460000
chrX	106820000	106920000
chrX	42040000	42260000
chrX	162460000	162840000
chrX	9520000	9620000
chrX	86920000	87020000
chrX	159520000	160140000
chrX	17600000	18160000
chrX	50660000	51040000
chrX	76340000	76500000
chrX	75720000	76240000
chrX	86820000	86920000
chrX	166160000	167280000
chrX	56360000	56620000
chrX	96900000	97460000
chrX	74960000	75100000
chrX	76220000	76320000
chrX	73520000	73960000
chrX	77820000	78460000
chrX	139360000	139760000
chrX	6260000	6500000
chrX	166440000	166660000
chrX	166160000	166660000
chrX	47900000	48640000
chrX	144680000	145160000
chrX	38800000	39440000
chrX	162460000	162900000
chrX	70580000	71400000
chrX	153740000	153900000
chrX	107200000	107440000
chrX	72660000	72780000
chrX	144360000	145380000
chrX	21400000	21520000
chrX	105780000	105920000
chrX	168680000	168940000
chrX	58500000	58620000
chrX	113300000	113400000
chrX	144440000	144620000
chrX	156580000	156680000
chrX	85940000	86360000
chrX	102500000	102940000
chrX	152700000	152840000
chrX	70160000	70340000
chrX	38500000	38760000
chrX	11160000	11620000
chrX	169100000	169300000
chrX	19240000	19340000
chrX	70340000	71420000
chrX	70580000	71060000
chrX	166160000	166460000
chrX	16920000	17080000
chrX	16420000	16880000
chrX	105080000	105400000
chrX	157840000	157940000
chrX	18480000	18680000
chrX	101540000	101640000
chrX	87600000	88120000
chrX	155780000	155880000
chrX	108520000	108700000
chrX	145700000	145800000
chrX	156320000	156420000
chrX	6260000	6540000
chrX	144680000	145300000
chrX	157300000	157460000
chrX	103180000	103460000
chrX	88140000	88320000
chrX	144020000	144320000
chrX	106220000	106760000
chrX	93280000	93520000
chrX	72540000	72660000
chrX	158260000	158380000
chrX	103260000	103380000
chrX	47020000	47200000
chrX	40160000	40260000
chrX	163820000	164080000
chrX	38800000	39500000
chrX	58400000	58500000
chrX	153880000	154000000
chrX	114120000	114280000
chrX	134060000	134440000
chrX	13220000	13520000
chrX	101800000	102140000
chrX	85660000	86420000
chrX	50540000	50660000
chrX	71640000	71960000
chrX	56620000	56860000
chrX	99580000	99680000
chrX	162780000	162900000
chrX	157700000	158940000
chrX	41820000	41920000
chrX	50940000	51040000
chrX	77720000	77820000
chrX	133900000	134060000
chrX	165180000	165340000
chrX	41920000	42040000
chrX	57700000	57900000
chrX	18680000	19240000
chrX	57520000	57640000
chrX	104320000	104420000
chrX	113820000	113940000
chrX	19780000	19880000
chrX	162900000	163140000
chrX	155360000	155620000
chrX	103460000	104000000
chrX	51760000	51920000
chrX	83060000	83180000
chrX	38820000	38920000
chrX	152600000	152700000
chrX	46280000	46400000
chrX	105440000	105740000
chrX	46740000	46860000
chrX	98660000	99120000
chrX	109400000	109700000
chrX	161980000	162100000
chrX	129280000	129760000
chrX	100240000	100380000
chrX	133720000	134520000
chrX	130620000	130760000
chrX	42340000	42540000
chrX	86740000	87600000
chrX	63660000	63940000
chrX	161940000	162280000
chrX	167840000	168120000
chrX	73560000	73660000
chrX	156120000	156220000
chrX	48640000	50560000
chrX	150840000	150960000
chrX	150480000	151140000
chrX	114220000	114320000
chrX	164180000	164400000
chrX	162480000	162780000
chrX	12160000	12260000
chrX	161960000	162160000
chrX	131760000	131860000
chrX	68760000	70360000
chrX	136580000	137100000
chrX	21040000	21340000
chrX	79420000	79560000
chrX	12640000	13180000
chrX	150480000	151180000
chrX	132720000	132820000
chrX	114300000	114580000
chrX	11100000	11200000
chrX	138220000	138980000
chrX	158040000	158600000
chrX	8140000	8260000
chrX	146700000	146820000
chrX	47420000	47520000
chrX	77300000	77720000
chrX	130760000	130880000
chrX	156460000	156580000
chrX	39960000	40060000
chrX	18760000	18880000
chrX	142660000	142800000
chrX	158600000	158940000
chrX	167480000	167860000
chrX	41400000	41580000
chrX	160560000	161040000
chrX	161860000	161960000
chrX	73960000	74240000
chrX	10640000	12540000
chrX	69360000	69900000
chrX	138620000	138720000
chrX	144300000	144400000
chrX	98140000	98600000
chrX	85920000	86420000
chrX	18680000	18880000
chrX	59820000	59940000
chrX	109060000	109240000
chrX	151580000	151800000
chrX	144360000	145320000
chrX	103460000	103640000
chrX	163820000	163920000
chrX	9040000	10200000
chrX	162900000	163400000
chrX	73560000	73700000
chrX	72280000	72380000
chrX	22080000	22180000
chrX	50600000	51380000
chrX	120300000	120420000
chrX	51500000	51600000
chrX	48280000	48380000
chrX	119740000	119860000
chrX	151340000	151440000
chrX	60240000	60360000
chrX	167880000	168000000
chrX	139020000	139200000
chrX	139040000	139140000
chrX	153520000	153620000
chrX	45180000	45340000
chrX	49440000	49540000
chrX	57900000	58500000
chrX	10080000	10220000
chrX	17260000	17560000
chrX	160760000	161020000
chrX	66660000	68300000
chrX	166320000	166660000
chrX	164400000	164520000
chrX	61120000	61640000
chrX	102500000	102660000
chrX	156800000	156900000
chrX	137620000	138180000
chrX	137200000	137560000
chrX	100760000	100960000
chrX	87080000	87200000
chrX	120280000	120700000
chrX	62160000	62260000
chrX	101200000	101340000
chrX	79560000	79660000
chrX	155620000	156240000
chrX	162280000	162460000
chrX	20620000	21380000
chrX	143700000	144040000
chrX	16920000	17020000
chrX	9320000	9620000
chrX	71960000	72200000
chrX	162820000	162940000
chrX	74440000	75060000
chrX	71660000	71800000
chrX	12580000	13120000
chrX	114140000	114320000
chrX	18440000	18660000
chrX	79920000	80020000
chrX	61160000	61380000
chrX	7560000	7680000
chrX	108840000	109060000
chrX	60220000	60400000
chrX	82640000	82760000
chrX	162900000	164080000
chrX	51920000	52400000
chrX	18980000	19080000
chrX	128940000	129040000
chrX	156580000	156740000
chrX	164080000	164500000
chrX	21580000	21700000
chrX	100740000	100900000
chrX	73140000	73440000
chrX	45600000	45760000
chrX	160300000	160400000
chrX	109080000	109200000
chrX	93280000	93480000
chrX	140480000	140620000
chrX	73960000	74440000
chrX	157140000	157300000
chrX	107180000	107280000
chrX	47300000	47920000
chrX	160580000	160860000
chrX	95960000	96900000
chrX	48640000	49340000
chrX	106020000	106220000
chrX	112400000	112940000
chrX	59020000	59140000
chrX	160140000	160560000
chrX	60640000	61060000
chrX	11880000	12000000
chrX	61380000	61600000
chrX	80700000	80800000
chrX	99120000	99680000
chrX	143820000	144000000
chrX	136380000	136600000
chrX	158620000	158860000
chrX	137800000	137920000
chrX	96900000	97460000
chrX	48880000	49320000
chrX	20620000	20960000
chrX	161380000	161840000
chrX	59180000	59600000
chrX	9620000	9740000
chrX	100960000	101080000
chrX	103980000	105060000
chrX	160840000	161000000
chrX	114560000	114680000
chrX	18280000	18520000
chrX	47160000	47280000
chrX	9200000	9320000
chrX	71960000	72920000
chrX	47020000	47140000
chrX	160200000	160300000
chrX	153220000	153380000
chrX	132400000	133700000
chrX	22380000	22480000
chrX	71800000	71920000
chrX	19400000	19520000
chrX	72160000	72940000
chrX	17400000	17520000
chrX	64000000	64300000
chrX	11440000	11540000
chrX	161900000	162460000
chrX	43180000	43300000
chrX	47860000	48660000
chrX	15700000	15800000
chrX	80800000	80920000
chrX	7200000	7320000
chrX	168420000	168580000
chrX	93080000	93280000
chrX	23440000	23540000
chrX	87900000	88020000
chrX	142560000	142820000
chrX	99840000	100480000
chrX	142820000	143060000
chrX	77900000	78440000
chrX	164080000	164180000
chrX	19560000	19760000
chrX	63060000	63160000
chrX	97540000	97700000
chrX	153380000	153560000
chrX	112480000	112680000
chrX	163920000	164080000
chrX	166660000	167260000
chrX	164560000	165160000
chrX	82320000	82460000
chrX	39480000	39600000
chrX	99820000	99940000
chrX	20340000	20620000
chrX	97900000	98020000
chrX	105120000	105600000
chrX	118500000	118620000
chrX	161040000	161300000
