chr1	18120000	18320000
chr1	133380000	133620000
chr1	147500000	147620000
chr1	127140000	127480000
chr1	193760000	193920000
chr1	55020000	55220000
chr1	166460000	166660000
chr1	136520000	136760000
chr1	30760000	30960000
chr1	24360000	24660000
chr1	9760000	10040000
chr1	183080000	183280000
chr1	39660000	40000000
chr1	132620000	132760000
chr1	139200000	139400000
chr1	186800000	187120000
chr1	124420000	124540000
chr1	183440000	183640000
chr1	189680000	189880000
chr1	118800000	118980000
chr1	58460000	58560000
chr1	91380000	91500000
chr1	103320000	103420000
chr1	165340000	165480000
chr1	96580000	96720000
chr1	45320000	45780000
chr1	159220000	159380000
chr1	147500000	147680000
chr1	125080000	125200000
chr1	4360000	4780000
chr1	109140000	109260000
chr1	72220000	72720000
chr1	112360000	112480000
chr1	16740000	17120000
chr1	139320000	139460000
chr1	36300000	36500000
chr1	45420000	45660000
chr1	160740000	160860000
chr1	192880000	192980000
chr1	111640000	112400000
chr1	6400000	6980000
chr1	161020000	161120000
chr1	74600000	74740000
chr1	32740000	32940000
chr1	83760000	84080000
chr1	45840000	46000000
chr1	50960000	51280000
chr1	105060000	105640000
chr1	54480000	55100000
chr1	177280000	177380000
chr1	25520000	25640000
chr1	153500000	153760000
chr1	25500000	25840000
chr1	107020000	107180000
chr1	46840000	47220000
chr1	177800000	178500000
chr1	10480000	10760000
chr1	132360000	132500000
chr1	133140000	133320000
chr1	80540000	80800000
chr1	13140000	13500000
chr1	75640000	75940000
chr1	149560000	149720000
chr1	111640000	112480000
chr1	106600000	106700000
chr1	83400000	83680000
chr1	154200000	154760000
chr1	79640000	79800000
chr1	117600000	118280000
chr1	154860000	155020000
chr1	66160000	66420000
chr1	78480000	78720000
chr1	60040000	60140000
chr1	51740000	51940000
chr1	60640000	60960000
chr1	151540000	151720000
chr1	60480000	60860000
chr1	81320000	82500000
chr1	92020000	92120000
chr1	161780000	161880000
chr1	81040000	81300000
chr1	141940000	143640000
chr1	40560000	40700000
chr1	120140000	120580000
chr1	130420000	130540000
chr1	164000000	164160000
chr1	67280000	67400000
chr1	97460000	97720000
chr1	92900000	93100000
chr1	55140000	55240000
chr1	57420000	57640000
chr1	166740000	167220000
chr1	24400000	24620000
chr1	151020000	151400000
chr1	52120000	52240000
chr1	89400000	89520000
chr1	174460000	174600000
chr1	176700000	176880000
chr1	156680000	157540000
chr1	120300000	120460000
chr1	38800000	38940000
chr1	106940000	107600000
chr1	176300000	176700000
chr1	162740000	164240000
chr1	165220000	165360000
chr1	59860000	60020000
chr1	62700000	63120000
chr1	32220000	32480000
chr1	132120000	132500000
chr1	126340000	126440000
chr1	14400000	14500000
chr1	186180000	186380000
chr1	8400000	8560000
chr1	107180000	107560000
chr1	157560000	158680000
chr1	168820000	168920000
chr1	91880000	91980000
chr1	166520000	166660000
chr1	185360000	185560000
chr1	184400000	184740000
chr1	158240000	158680000
chr1	159220000	159320000
chr1	162340000	162560000
chr1	184560000	184660000
chr1	166160000	166260000
chr1	38440000	38620000
chr1	176000000	176180000
chr1	119080000	119460000
chr1	86580000	87340000
chr1	191840000	191940000
chr1	86640000	87080000
chr1	159320000	159920000
chr1	35400000	35680000
chr1	149120000	149220000
chr1	164760000	164900000
chr1	129100000	129260000
chr1	150020000	150280000
chr1	127780000	128280000
chr1	118280000	118540000
chr1	191300000	191820000
chr1	4440000	4780000
chr1	149380000	149500000
chr1	165460000	166400000
chr1	61000000	61460000
chr1	119120000	119240000
chr1	23820000	24260000
chr1	54820000	54980000
chr1	20560000	20660000
chr1	45360000	45780000
chr1	38300000	38780000
chr1	179480000	179800000
chr1	182620000	182720000
chr1	73860000	74200000
chr1	131280000	131580000
chr1	172380000	172520000
chr1	178500000	179480000
chr1	157080000	157540000
chr1	168540000	169460000
chr1	87760000	88000000
chr1	60280000	60500000
chr1	24320000	24700000
chr1	167400000	167680000
chr1	150340000	150520000
chr1	39360000	39540000
chr1	8540000	8660000
chr1	63440000	63560000
chr1	86880000	87020000
chr1	163960000	164240000
chr1	149820000	150280000
chr1	123420000	123620000
chr1	124520000	124620000
chr1	54560000	55060000
chr1	99960000	100120000
chr1	154240000	154420000
chr1	57480000	57580000
chr1	54640000	54980000
chr1	151360000	151480000
chr1	62780000	62920000
chr1	43740000	44180000
chr1	119500000	120000000
chr1	132620000	133120000
chr1	160200000	161040000
chr1	100700000	100800000
chr1	179940000	180140000
chr1	43300000	43640000
chr1	182740000	182900000
chr1	6400000	6880000
chr1	53040000	53300000
chr1	38940000	39540000
chr1	74500000	74760000
chr1	13140000	13440000
chr1	154240000	154660000
chr1	180760000	180860000
chr1	161260000	161780000
chr1	7740000	8900000
chr1	177440000	177600000
chr1	130680000	130800000
chr1	64560000	65200000
chr1	146320000	146460000
chr1	37020000	37180000
chr1	123640000	123760000
chr1	161880000	161980000
chr1	57820000	57980000
chr1	107020000	107120000
chr1	84400000	84700000
chr1	162800000	163080000
chr1	84300000	84700000
chr1	40860000	41800000
chr1	192720000	193180000
chr1	105660000	106040000
chr1	106740000	106940000
chr1	151180000	151280000
chr1	149780000	150380000
chr1	13440000	13560000
chr1	161840000	162340000
chr1	87200000	87320000
chr1	137320000	137920000
chr1	69260000	69780000
chr1	105000000	105580000
chr1	51620000	52140000
chr1	137220000	137320000
chr1	40560000	40780000
chr1	50920000	51340000
chr1	15000000	15700000
chr1	124540000	124660000
chr1	55000000	55100000
chr1	167200000	167400000
chr1	71540000	72160000
chr1	56980000	57400000
chr1	31040000	31160000
chr1	181240000	181560000
chr1	34720000	34900000
chr1	125580000	126980000
chr1	25500000	25760000
chr1	35860000	36000000
chr1	120300000	120540000
chr1	160380000	160720000
chr1	135280000	135380000
chr1	163400000	163640000
chr1	69380000	69500000
chr1	169340000	169480000
chr1	182540000	183320000
chr1	191720000	191820000
chr1	88780000	89220000
chr1	105840000	106000000
chr1	57520000	57800000
chr1	41800000	42260000
chr1	166840000	166940000
chr1	65300000	66100000
chr1	42760000	42860000
chr1	189260000	189660000
chr1	177440000	177700000
chr1	80720000	80820000
chr1	135800000	135960000
chr1	188980000	189700000
chr1	82760000	83020000
chr1	51340000	51460000
chr1	5920000	6180000
chr1	75820000	75920000
chr1	63100000	63640000
chr1	104740000	104980000
chr1	39540000	39680000
chr1	156700000	156920000
chr1	161780000	161960000
chr1	139500000	139860000
chr1	59520000	59620000
chr1	191960000	192060000
chr1	121600000	121800000
chr1	162540000	162740000
chr1	102500000	102660000
chr1	182540000	182980000
chr1	152940000	153060000
chr1	181900000	182120000
chr1	157400000	157540000
chr1	15140000	15280000
chr1	180240000	180420000
chr1	123620000	123800000
chr1	90500000	90600000
chr1	53440000	53540000
chr1	71280000	71540000
chr1	4440000	4680000
chr1	159240000	160200000
chr1	55920000	56980000
chr1	24760000	25060000
chr1	37640000	37880000
chr1	165020000	165120000
chr1	38980000	39380000
chr1	62600000	62700000
chr1	137320000	138060000
chr1	46820000	47280000
chr1	104980000	105640000
chr1	134440000	134640000
chr1	114800000	114900000
chr1	92920000	93840000
chr1	72660000	72860000
chr1	194060000	194180000
chr1	192120000	192740000
chr1	102380000	102560000
chr1	184800000	185420000
chr1	159520000	159740000
chr1	191300000	191580000
chr1	4780000	5120000
chr1	98440000	98540000
chr1	64120000	64240000
chr1	55440000	55540000
chr1	16560000	16680000
chr1	119620000	119940000
chr1	66720000	67060000
chr1	30700000	31220000
chr1	135520000	135700000
chr1	175500000	175600000
chr1	6940000	7220000
chr1	186820000	187220000
chr1	160740000	160940000
chr1	4480000	4760000
chr1	82720000	83080000
chr1	64620000	64720000
chr1	130420000	131080000
chr1	48000000	48100000
chr1	116400000	116520000
chr1	23380000	23520000
chr1	30760000	30880000
chr1	187040000	187140000
chr1	88320000	88420000
chr1	14880000	14980000
chr1	185680000	185780000
chr1	180580000	180760000
chr1	181220000	181700000
chr1	23840000	24040000
chr1	23060000	23160000
chr1	178500000	179160000
chr1	135280000	135420000
chr1	55560000	55700000
chr1	119420000	119520000
chr1	180420000	180760000
chr1	16120000	16220000
chr1	125380000	125600000
chr1	131980000	132120000
chr1	125400000	127000000
chr1	179860000	179960000
chr1	130540000	130680000
chr1	9740000	10180000
chr1	128860000	130380000
chr1	187240000	187360000
chr1	14700000	14980000
chr1	3680000	4360000
chr1	10820000	11140000
chr1	157080000	157300000
chr1	88200000	88320000
chr1	64520000	64620000
chr1	100300000	100440000
chr1	23820000	24140000
chr1	30580000	30680000
chr1	184240000	184800000
chr1	187660000	187780000
chr1	79780000	80180000
chr1	21400000	22280000
chr1	38260000	38380000
chr1	136260000	136460000
chr1	51340000	51600000
chr1	140060000	140160000
chr1	137120000	137220000
chr1	52860000	53040000
chr1	15260000	15640000
chr1	136600000	136740000
chr1	9100000	9300000
chr1	182140000	182260000
chr1	181680000	181840000
chr1	175040000	175540000
chr1	90620000	90960000
chr1	183920000	185340000
chr1	164220000	164320000
chr1	62980000	63160000
chr1	36700000	37420000
chr1	92480000	92920000
chr1	81620000	82480000
chr1	51440000	51600000
chr1	185200000	185460000
chr1	74280000	74400000
chr1	16620000	16760000
chr1	193940000	194040000
chr1	181360000	181460000
chr1	168080000	168180000
chr1	153760000	153860000
chr1	132480000	132620000
chr1	169720000	169920000
chr1	106400000	106760000
chr1	30760000	30920000
chr1	51200000	51320000
chr1	128920000	129060000
chr1	38480000	38620000
chr1	174580000	174980000
chr1	183420000	184760000
chr1	169500000	170180000
chr1	82540000	82680000
chr1	87800000	87940000
chr1	65340000	66100000
chr1	5300000	5400000
chr1	78720000	78980000
chr1	127020000	127160000
chr1	53340000	53700000
chr1	139840000	139960000
chr1	122200000	122320000
chr1	177700000	177800000
chr1	160440000	160720000
chr1	125080000	125320000
chr1	176880000	177200000
chr1	193400000	193580000
chr1	140740000	140880000
chr1	66540000	66640000
chr1	115680000	115780000
chr1	57400000	58360000
chr1	133120000	133620000
chr1	63760000	64140000
chr1	53540000	53680000
chr1	99780000	100160000
chr1	159280000	160180000
chr1	53900000	54220000
chr1	27340000	27440000
chr1	22060000	22180000
chr1	156920000	157080000
chr1	121580000	122400000
chr1	69200000	69300000
chr1	37720000	37840000
chr1	65080000	65260000
chr1	42820000	43100000
chr1	140120000	140720000
chr1	36300000	36540000
chr1	159380000	159520000
chr1	77380000	77540000
chr1	158960000	159120000
chr1	58140000	58260000
chr1	5920000	6120000
chr1	120720000	120820000
chr1	38140000	38800000
chr1	67460000	67640000
chr1	169520000	169900000
chr1	24720000	25040000
chr1	182980000	183280000
chr1	43440000	43580000
chr1	21860000	21960000
chr1	25640000	25820000
chr1	171100000	171340000
chr1	105720000	105840000
chr1	111320000	111420000
chr1	92180000	92380000
chr1	24440000	24580000
chr1	57480000	57800000
chr1	69260000	69360000
chr1	155560000	155860000
chr1	36300000	36740000
chr1	157740000	158240000
chr1	184820000	185460000
chr1	155820000	156040000
chr1	10880000	11080000
chr1	83240000	83400000
chr1	170880000	171100000
chr1	36740000	37260000
chr1	104380000	104480000
chr1	58560000	58740000
chr1	183280000	183400000
chr1	80780000	81320000
chr1	171100000	171300000
chr1	46040000	46440000
chr1	11420000	11540000
chr1	169660000	169940000
chr1	58760000	58900000
chr1	4900000	5040000
chr1	52300000	52460000
chr1	64540000	65040000
chr1	66100000	66700000
chr1	46560000	46820000
chr1	25640000	25760000
chr1	186860000	186960000
chr1	182340000	182480000
chr1	146480000	146920000
chr1	15840000	16100000
chr1	156260000	156420000
chr1	88020000	88320000
chr1	123360000	124040000
chr1	173480000	174140000
chr1	166740000	167000000
chr1	30140000	30560000
chr1	166000000	166160000
chr1	4340000	4440000
chr1	176240000	176660000
chr1	118600000	118760000
chr1	105320000	105440000
chr1	44540000	44660000
chr1	171480000	171600000
chr1	150820000	150920000
chr1	90000000	90600000
chr1	9180000	9300000
chr1	123700000	123800000
chr1	86420000	86600000
chr1	156540000	156640000
chr1	141820000	141960000
chr1	66860000	67180000
chr1	35480000	35700000
chr1	129960000	130100000
chr1	13780000	14700000
chr1	72220000	72660000
chr1	162380000	162480000
chr1	39760000	39900000
chr1	78700000	79700000
chr1	23320000	23620000
chr1	73280000	73620000
chr1	166420000	167220000
chr1	160200000	160400000
chr1	45660000	45760000
chr1	22580000	22820000
chr1	175760000	175880000
chr1	178320000	178480000
chr1	50960000	51220000
chr1	39800000	39900000
chr1	25240000	25440000
chr1	42700000	42840000
chr1	87320000	87420000
chr1	107240000	107540000
chr1	15660000	15840000
chr1	140220000	140540000
chr1	83400000	83640000
chr1	21960000	22260000
chr1	179780000	180240000
chr1	82300000	82480000
chr1	78740000	78840000
chr1	151920000	152040000
chr1	58400000	58560000
chr1	48360000	48460000
chr1	15640000	15800000
chr1	185660000	186160000
chr1	151080000	151180000
chr1	130860000	130980000
chr1	154240000	154740000
chr1	65180000	65280000
chr1	57220000	57380000
chr1	59100000	59200000
chr1	179500000	179660000
chr1	131680000	131780000
chr1	120580000	121440000
chr1	133440000	133580000
chr1	138320000	138500000
chr1	176220000	176700000
chr1	34920000	35480000
chr1	59100000	59240000
chr1	6220000	7200000
chr1	150280000	150380000
chr1	149820000	150020000
chr1	55220000	55880000
chr1	121420000	121580000
chr1	138620000	138720000
chr1	184260000	184420000
chr1	124540000	124700000
chr1	189740000	189860000
chr1	114180000	114280000
chr1	37440000	37640000
chr1	119240000	119380000
chr1	128880000	129100000
chr1	134680000	134860000
chr1	106760000	106900000
chr1	9740000	10120000
chr1	9300000	9460000
chr1	109980000	110080000
chr1	44200000	44740000
chr1	77920000	78520000
chr1	118760000	119080000
chr1	175620000	175940000
chr1	182560000	182740000
chr1	124900000	125080000
chr1	32180000	32580000
chr1	93440000	93820000
chr1	105200000	105320000
chr1	189680000	190020000
chr1	193440000	193580000
chr1	32580000	32740000
chr1	33980000	34200000
chr1	130860000	131060000
chr1	64120000	64460000
chr1	123940000	124040000
chr1	163400000	163740000
chr1	39680000	39920000
chr1	91780000	91960000
chr1	100620000	100800000
chr1	147340000	147440000
chr1	179140000	179480000
chr1	13660000	13780000
chr1	181340000	181540000
chr1	89220000	89320000
chr1	30620000	31200000
chr1	159520000	159780000
chr1	128280000	128860000
chr1	63620000	65200000
chr1	91560000	91800000
chr1	60980000	61160000
chr1	141020000	141160000
chr1	184900000	185200000
chr1	59680000	60100000
chr1	135160000	135280000
chr1	75640000	77520000
chr1	134960000	135160000
chr1	106040000	106400000
chr1	73620000	73740000
chr1	151180000	151320000
chr1	16080000	16440000
chr1	67240000	67500000
chr1	14740000	15000000
chr1	79820000	80100000
chr1	13840000	14000000
chr1	86720000	86840000
chr1	91280000	91400000
chr1	90380000	90480000
chr1	176720000	176820000
chr1	7280000	7400000
chr1	112580000	112720000
chr1	152520000	152760000
chr1	65540000	65640000
chr1	149860000	150280000
chr1	40680000	40780000
chr1	36940000	37200000
chr1	15800000	16100000
chr1	16260000	16360000
chr1	78700000	78820000
chr1	12840000	13140000
chr1	56820000	57000000
chr1	38000000	38160000
chr1	89640000	90000000
chr1	176920000	177020000
chr1	83740000	84300000
chr1	28020000	28120000
chr1	193580000	193720000
chr1	61040000	61160000
chr1	59000000	59220000
chr1	35760000	36060000
chr1	71320000	71420000
chr1	156720000	157120000
chr1	163780000	163960000
chr1	45800000	46060000
chr1	191080000	191220000
chr1	143500000	143640000
chr1	24720000	25500000
chr1	169520000	169660000
chr1	134100000	134360000
chr1	24920000	25020000
chr1	15700000	15800000
chr1	10260000	10780000
chr1	58140000	58300000
chr1	185540000	185700000
chr1	164460000	164600000
chr1	59340000	59460000
chr1	64580000	65040000
chr1	105780000	105880000
chr1	4500000	4720000
chr1	106500000	106720000
chr1	46440000	46580000
chr1	80940000	81060000
chr1	97480000	97780000
chr1	169160000	169320000
chr1	117540000	117660000
chr1	83800000	83900000
chr1	173460000	174460000
chr1	87040000	87200000
chr1	138800000	139200000
chr1	183660000	184220000
chr1	39020000	39220000
chr1	107500000	107600000
chr1	30960000	31180000
chr1	13040000	13140000
chr1	81580000	82480000
chr1	40560000	40860000
chr1	100020000	100120000
chr1	137900000	138040000
chr1	71320000	71500000
chr1	156520000	156680000
chr1	22280000	22420000
chr1	121580000	123320000
chr1	154280000	154420000
chr1	125600000	125760000
chr1	90900000	91400000
chr1	179220000	179440000
chr1	116480000	116580000
chr1	143080000	143220000
chr1	23520000	23680000
chr1	174140000	174460000
chr1	37540000	37640000
chr1	153900000	154080000
chr1	58760000	59100000
chr1	44240000	44740000
chr1	175120000	175300000
chr1	51980000	52120000
chr1	172660000	172760000
chr1	25060000	25240000
chr1	180980000	181100000
chr1	36120000	36300000
chr1	10180000	10820000
chr1	106980000	107580000
chr1	64720000	64920000
chr1	17960000	18120000
chr1	189880000	190000000
chr1	20940000	21080000
chr1	183640000	184440000
chr1	174600000	174840000
chr1	140120000	140680000
chr1	96580000	96780000
chr1	53700000	53840000
chr1	155280000	155560000
chr1	170220000	170620000
chr1	63280000	63560000
chr1	128860000	129260000
chr1	9540000	10160000
chr1	127480000	127780000
chr1	138120000	138320000
chr1	109980000	110120000
chr1	75300000	75600000
chr1	78300000	78420000
chr1	75660000	75820000
chr1	156760000	156860000
chr1	180420000	180580000
chr1	8960000	9100000
chr1	77740000	77880000
chr1	54440000	54560000
chr1	90180000	90600000
chr1	56660000	56820000
chr1	15860000	16000000
chr1	160740000	161200000
chr1	35160000	35260000
chr1	12860000	13680000
chr1	72880000	73280000
chr1	23300000	23680000
chr1	60520000	60880000
chr1	92640000	92900000
chr1	194340000	194500000
chr1	89720000	89840000
chr1	52640000	52780000
chr1	160200000	160740000
chr1	116320000	116420000
chr1	159900000	160100000
chr1	106900000	107020000
chr1	189080000	189660000
chr1	91400000	91540000
chr1	9320000	9520000
chr1	52460000	52640000
chr1	135440000	135700000
chr1	17480000	17600000
chr1	77520000	77660000
chr1	89660000	89900000
chr1	179300000	179400000
chr1	118800000	119060000
chr1	42900000	43040000
chr1	73120000	73240000
chr1	10220000	10480000
chr1	132120000	132300000
chr1	163140000	163400000
chr1	166800000	167000000
chr1	170340000	170580000
chr1	140120000	140620000
chr1	184040000	184180000
chr1	30700000	30960000
chr1	191080000	191300000
chr1	134340000	134460000
chr1	132740000	133020000
chr1	58020000	58140000
chr1	15020000	15260000
chr1	43100000	43760000
chr1	193180000	193400000
chr1	153200000	153340000
chr1	154400000	154740000
chr1	53880000	54400000
chr1	129260000	129500000
chr1	133700000	134060000
chr1	143720000	144420000
chr1	150640000	150740000
chr1	6880000	7000000
chr1	115520000	115640000
chr1	5920000	6220000
chr1	189700000	190880000
chr1	77980000	78440000
chr1	177800000	179500000
chr1	99820000	99940000
chr1	65020000	65240000
chr1	24420000	24520000
chr1	152780000	153080000
chr1	21760000	21960000
chr1	180240000	180820000
chr1	158260000	158360000
chr1	44100000	44220000
chr1	74280000	74480000
chr1	69160000	69780000
chr1	70280000	70720000
chr1	119500000	119940000
chr1	133120000	133380000
chr1	167940000	168180000
chr1	61460000	62160000
chr1	192280000	192720000
chr1	155020000	155240000
chr1	23880000	24020000
chr1	89660000	89840000
chr1	105740000	106040000
chr1	54560000	54660000
chr1	106400000	106900000
chr1	140680000	140820000
chr1	98200000	98300000
chr1	6160000	6280000
chr1	191360000	191580000
chr1	99760000	100260000
chr1	23680000	24280000
chr1	105000000	105100000
chr1	182340000	182540000
chr1	121880000	122080000
chr1	105100000	105200000
chr1	17960000	18060000
chr1	72300000	72620000
chr1	37260000	37460000
chr1	36780000	36940000
chr1	120840000	121440000
chr1	22540000	23160000
chr1	97540000	97660000
chr1	79440000	79680000
chr1	158240000	158600000
chr1	57220000	57340000
chr1	46060000	46540000
chr1	80180000	80540000
chr1	7060000	7220000
chr1	152100000	152220000
chr1	34200000	34440000
chr1	45360000	45700000
chr1	172020000	172380000
chr1	15000000	15140000
chr1	20300000	20500000
chr1	161400000	161640000
chr1	57760000	57920000
chr1	34460000	34720000
chr1	57060000	57180000
chr1	162740000	163100000
chr1	185700000	186100000
chr1	4540000	4680000
chr1	97820000	98200000
chr1	64520000	64700000
chr1	134620000	134880000
chr1	175300000	175500000
chr1	89760000	89860000
chr1	186380000	186720000
chr1	157560000	158240000
chr1	38520000	38620000
chr1	57960000	58140000
chr1	92480000	92640000
chr1	4380000	4480000
chr1	152380000	152520000
chr1	138500000	138620000
chr1	168720000	168820000
chr1	148040000	148160000
chr1	125660000	125780000
chr1	63280000	63440000
chr1	45500000	45620000
chr1	169520000	169960000
chr1	34460000	34640000
chr1	12700000	12840000
chr1	189340000	189580000
chr1	11140000	11620000
chr1	174480000	175020000
chr1	63780000	63940000
chr1	43640000	43740000
chr1	119800000	119920000
chr1	159900000	160200000
chr1	138120000	138800000
chr1	80620000	80720000
chr1	8320000	8560000
chr1	78720000	78940000
chr1	86580000	87220000
chr1	80240000	80340000
chr1	73720000	73840000
chr1	16160000	16400000
chr1	180880000	180980000
chr1	6360000	6980000
chr1	21280000	21400000
chr1	164300000	165200000
chr1	20800000	20920000
chr1	42120000	42220000
chr1	16780000	16960000
chr1	122440000	123320000
chr1	75920000	76080000
chr1	143220000	143600000
chr1	133920000	134060000
chr1	55440000	55760000
chr1	143680000	143800000
chr1	120580000	120860000
chr1	64120000	64320000
chr1	132620000	133040000
chr1	118280000	118620000
chr1	64700000	65020000
chr1	146680000	146900000
chr1	174600000	174920000
chr1	64780000	64920000
chr1	69200000	69780000
chr1	190540000	190680000
chr1	88540000	88700000
chr1	182340000	182440000
chr1	133020000	133140000
chr1	7220000	7380000
chr1	123800000	123900000
chr1	37880000	38000000
chr1	16800000	16920000
chr1	111420000	111580000
chr1	158340000	158600000
chr1	180860000	181100000
chr1	17640000	17760000
chr1	71620000	72060000
chr1	132160000	132300000
chr1	7000000	7180000
chr1	60320000	60440000
chr1	150540000	150940000
chr1	158720000	158960000
chr1	151460000	151740000
chr1	186160000	186740000
chr1	123360000	123620000
chr1	74240000	74480000
chr1	120220000	120500000
chr1	194620000	194760000
chr1	190020000	190760000
chr1	194260000	194580000
chr1	118760000	118860000
chr1	88020000	89220000
chr1	124660000	125400000
chr1	83140000	83740000
chr1	143800000	144020000
chr1	36540000	36760000
chr1	93800000	94120000
chr1	58900000	59000000
chr1	87400000	87780000
chr1	121260000	121360000
chr1	178120000	178320000
chr1	164320000	165120000
chr1	32940000	33640000
chr1	63660000	64560000
chr1	97760000	98580000
chr1	76660000	76820000
chr1	139460000	140120000
chr1	167940000	168080000
chr1	22280000	22520000
chr1	135820000	136020000
chr1	24400000	24580000
chr1	143180000	143600000
chr1	143680000	144420000
chr1	144220000	144400000
chr1	12860000	13040000
chr1	170620000	170880000
chr1	153860000	154200000
chr1	38180000	38320000
chr1	180620000	180720000
chr1	59060000	59240000
chr1	72720000	72820000
chr1	11160000	11260000
chr1	91120000	91280000
chr1	156060000	156220000
chr1	149320000	149560000
chr1	55020000	55180000
chr1	82540000	82720000
chr1	4240000	4340000
chr1	53700000	53900000
chr1	181100000	181220000
chr1	155560000	156040000
chr1	77620000	77880000
chr1	15000000	15380000
chr1	179800000	180180000
chr1	164900000	165040000
chr1	9540000	9760000
chr1	22820000	22920000
chr1	24280000	24720000
chr1	171360000	171500000
chr1	153500000	153860000
chr1	139300000	139400000
chr1	91340000	91500000
chr1	181900000	182040000
chr1	83720000	84700000
chr1	146500000	146860000
chr1	52300000	52640000
chr1	6220000	6360000
chr1	90620000	90860000
chr1	21160000	21400000
chr1	157280000	157540000
chr1	141960000	142060000
chr1	74000000	74120000
chr1	143340000	143460000
chr1	134060000	134360000
chr1	135000000	135100000
chr1	53900000	54300000
chr1	61460000	61580000
chr1	183540000	183640000
chr1	24880000	25040000
chr1	54380000	54520000
chr1	177020000	177200000
chr1	38880000	38980000
chr1	24120000	24280000
chr1	44960000	45060000
chr1	42700000	42880000
chr1	173320000	173440000
chr1	164460000	164760000
chr1	39200000	39340000
chr1	38800000	38980000
chr1	74880000	75060000
chr1	60080000	60320000
chr1	157560000	157740000
chr1	131800000	131900000
chr1	155580000	155720000
chr1	114080000	114180000
chr1	125760000	126440000
chr1	137280000	138080000
chr1	134360000	134500000
chr1	166240000	166380000
chr1	98580000	98680000
chr1	90600000	90900000
chr1	100520000	100620000
chr1	176880000	177440000
chr1	164900000	165120000
chr1	116500000	116640000
chr1	58760000	59220000
chr1	140160000	140560000
chr1	69780000	70240000
chr1	31900000	32000000
chr1	5080000	5180000
chr1	88000000	88200000
chr1	9580000	9700000
chr1	48140000	48240000
chr1	44420000	44540000
chr1	23160000	23260000
chr1	40100000	40400000
chr1	25840000	26860000
chr1	40380000	40560000
chr1	139160000	139260000
chr1	93480000	93820000
chr1	30660000	30940000
chr1	24760000	24900000
chr1	95300000	95700000
chr1	153920000	154040000
chr1	151440000	151800000
chr1	161020000	161160000
chr1	90960000	91120000
chr1	88020000	88120000
chr1	50920000	51620000
chr1	137680000	137840000
chr1	95780000	96660000
chr1	8660000	9120000
chr1	178720000	178980000
chr1	178100000	178480000
chr1	152760000	152880000
chr1	164460000	164900000
chr1	191580000	191740000
chr1	134500000	134900000
chr1	131380000	131520000
chr1	181820000	182140000
chr1	124720000	124860000
chr1	172100000	172340000
chr1	39900000	40000000
chr1	47880000	48000000
chr1	156420000	156520000
chr1	90960000	91400000
chr1	22280000	22480000
chr1	159780000	159900000
chr1	61160000	61360000
chr1	175100000	175500000
chr1	55400000	55800000
chr1	164180000	164300000
chr1	133700000	133920000
chr1	53840000	54400000
chr1	138960000	139080000
chr1	93580000	93820000
chr1	190940000	191080000
chr1	158320000	158660000
chr1	56680000	56780000
chr1	104760000	104920000
chr1	146600000	146900000
chr1	97760000	98420000
chr1	160080000	160180000
chr1	161340000	161720000
chr1	181560000	181680000
chr1	4860000	5060000
chr1	127000000	127480000
chr1	6980000	7240000
chr1	56360000	56460000
chr1	82700000	83160000
chr1	63640000	63760000
chr1	167400000	167920000
chr1	41840000	42260000
chr1	43100000	43300000
chr1	176860000	177720000
chr1	166160000	166400000
chr1	22340000	22480000
chr1	133780000	133900000
chr1	168500000	168680000
chr1	161400000	161600000
chr1	139500000	140120000
chr1	5920000	6020000
chr1	177980000	178120000
chr1	32140000	32740000
chr1	153640000	153740000
chr1	63760000	64460000
chr1	33660000	33760000
chr1	88320000	88740000
chr1	155040000	155160000
chr1	54020000	54200000
chr1	38300000	38660000
chr1	106160000	106400000
chr1	89220000	89640000
chr1	120000000	120160000
chr1	114180000	114340000
chr1	55380000	55880000
chr1	134860000	134960000
chr1	158960000	159060000
chr1	74760000	74880000
chr1	186860000	187000000
chr1	134500000	134620000
chr1	20980000	21080000
chr1	81600000	81700000
chr1	159500000	159880000
chr1	189220000	189360000
chr1	25500000	25700000
chr1	48600000	48720000
chr1	192160000	192620000
chr1	90220000	90600000
chr1	45140000	45260000
chr1	23320000	23540000
chr1	159140000	159260000
chr1	156980000	157080000
chr1	155800000	155960000
chr1	30140000	30640000
chr1	80540000	80720000
chr1	164800000	164900000
chr1	164680000	164780000
chr1	42000000	42100000
chr1	13540000	13680000
chr1	172520000	172620000
chr1	162580000	162680000
chr1	57040000	57140000
chr1	170900000	171000000
chr1	16660000	17160000
chr1	97500000	97660000
chr1	156720000	157540000
chr1	167000000	167200000
chr1	126460000	126960000
chr1	190900000	191300000
chr1	77520000	77940000
chr1	190760000	190940000
chr1	74200000	74460000
chr1	161980000	162340000
chr1	144420000	146480000
chr1	103920000	104760000
chr1	175300000	175440000
chr1	32180000	32480000
chr1	64320000	64440000
chr1	75120000	75320000
chr1	109560000	109660000
chr1	57680000	57960000
chr1	16240000	16400000
chr1	123340000	123540000
chr1	100280000	100400000
chr1	178540000	178720000
chr1	121200000	121440000
chr1	157540000	159220000
chr1	137540000	137660000
chr1	174460000	175640000
chr1	167000000	167160000
chr1	66460000	66680000
chr1	41800000	42700000
chr1	165760000	166020000
chr1	51640000	52020000
chr1	120920000	121440000
chr1	115640000	116520000
chr1	36300000	36440000
chr1	192120000	193180000
chr1	136760000	137240000
chr1	147340000	147500000
chr1	97820000	98100000
chr1	167760000	167900000
chr1	190200000	190760000
chr1	52500000	52620000
chr1	163400000	163780000
chr1	22600000	22740000
chr1	102420000	102560000
chr1	182560000	182920000
chr1	104760000	104880000
chr1	150180000	150280000
chr1	125780000	125920000
chr1	15300000	15600000
chr1	36540000	36720000
chr1	60180000	60300000
chr1	68220000	68320000
chr1	175940000	176220000
chr1	92180000	92440000
chr1	65020000	65200000
chr1	82480000	82740000
chr1	72700000	72880000
chr1	131920000	132120000
chr1	181220000	181640000
chr1	157120000	157540000
chr1	168220000	168360000
chr1	143220000	143500000
chr1	10120000	10220000
chr1	28200000	28340000
chr1	156260000	156660000
chr1	151760000	152520000
chr1	180420000	180680000
chr1	182980000	183100000
chr1	189360000	189500000
chr1	66860000	67060000
chr1	149220000	149320000
chr1	92640000	92840000
chr1	176000000	176220000
chr1	36140000	36260000
chr1	183340000	183640000
chr1	191580000	191820000
chr1	110660000	110760000
chr1	105660000	106400000
chr1	162340000	162740000
chr1	132500000	132740000
chr1	152100000	152300000
chr1	184820000	185220000
chr1	127500000	127720000
chr1	192780000	192880000
chr1	13140000	13580000
chr1	26560000	26680000
chr1	26780000	26900000
chr1	73620000	73820000
chr1	90740000	90840000
chr1	190280000	190420000
chr1	169940000	170200000
chr1	91320000	91460000
chr1	146340000	146500000
chr1	111640000	112580000
chr1	48500000	48600000
chr1	164320000	164460000
chr1	163300000	163400000
chr1	182720000	182980000
chr1	83800000	83940000
chr1	167460000	167640000
chr1	13700000	14740000
chr1	98540000	98680000
chr1	162880000	163080000
chr1	154760000	155020000
chr1	52640000	52860000
chr1	13120000	13680000
chr1	192980000	193140000
chr1	35680000	36100000
chr1	16520000	16620000
chr1	153100000	153360000
chr1	73880000	74000000
chr1	42700000	43080000
chr1	161400000	161560000
chr1	71540000	72220000
chr1	180820000	181220000
chr1	142120000	142240000
chr1	86920000	87020000
chr1	57420000	57980000
chr1	182560000	182880000
chr1	175020000	175640000
chr1	191400000	191560000
chr1	93160000	93280000
chr1	90960000	91280000
chr1	157280000	157420000
chr1	53700000	54400000
chr1	84400000	84600000
chr1	36920000	37240000
chr1	158680000	159240000
chr1	112520000	112680000
chr1	84080000	84300000
chr1	16500000	16680000
chr1	165760000	166160000
chr1	4780000	4900000
chr1	176880000	177020000
chr1	16680000	16780000
chr1	77700000	77800000
chr1	90660000	90840000
chr1	154480000	154720000
chr1	91960000	92480000
chr1	182980000	183340000
chr1	82800000	82960000
chr1	163920000	164300000
chr1	193260000	193380000
chr1	52120000	52300000
chr1	42260000	42700000
chr1	191820000	192100000
chr1	159380000	159820000
chr1	39980000	40100000
chr1	97800000	98360000
chr1	165640000	165760000
chr1	137680000	137800000
chr1	162800000	162900000
chr1	43280000	43740000
chr1	33760000	33980000
chr1	100400000	100500000
chr1	155300000	155420000
chr1	128580000	128820000
chr1	66680000	66880000
chr1	5740000	5840000
chr1	44800000	45320000
chr1	135700000	135820000
chr1	59220000	59660000
chr1	134600000	134960000
chr1	186220000	186720000
chr1	125620000	126460000
chr1	84600000	84700000
chr1	15000000	15800000
chr1	78940000	79640000
chr1	91980000	92180000
chr1	163320000	163940000
chr1	39580000	40000000
chr1	88740000	89220000
chr1	163160000	163780000
chr1	38360000	38640000
chr1	25220000	25500000
chr1	61180000	61320000
chr1	86880000	86980000
chr1	54380000	54560000
chr1	95400000	95500000
chr1	65200000	66200000
chr1	21680000	21960000
chr1	77340000	77520000
chr1	173740000	173840000
chr1	78720000	79440000
chr1	97680000	97800000
chr1	136960000	137220000
chr1	53040000	53700000
chr1	57980000	58380000
chr1	78120000	78220000
chr1	186340000	186720000
chr1	143620000	143760000
chr1	81500000	81600000
chr1	100240000	100500000
chr1	97820000	97980000
chr1	75120000	75620000
chr1	59740000	59860000
chr1	171800000	172020000
chr1	38000000	38860000
chr1	21420000	21680000
chr1	163200000	163400000
chr1	58400000	58500000
chr1	55060000	55240000
chr1	55880000	57360000
chr1	84300000	84400000
chr1	73880000	74140000
chr1	124180000	124280000
chr1	155840000	155960000
chr1	79520000	79700000
chr1	38620000	38760000
chr1	149560000	149760000
chr1	8560000	9320000
chr1	175940000	176700000
chr1	136760000	137280000
chr1	107120000	107220000
chr1	13020000	13680000
chr1	72860000	73860000
chr1	133660000	134100000
chr1	58400000	58760000
chr1	134140000	134260000
chr1	166420000	166740000
chr1	154620000	154740000
chr1	138300000	138800000
chr1	92020000	92180000
chr1	179620000	179800000
chr1	91520000	91960000
chr1	185100000	185200000
chr1	11620000	12840000
chr1	164580000	164680000
chr1	60580000	60800000
chr1	158360000	158500000
chr1	118080000	118200000
chr1	74760000	75060000
chr1	88420000	88740000
chr1	23300000	24280000
chr1	140540000	140680000
chr1	59760000	60080000
chr1	119460000	119960000
chr1	168160000	168440000
chr1	54500000	55020000
chr1	98200000	98340000
chr1	188020000	188900000
chr1	143280000	143480000
chr1	35320000	35480000
chr1	165840000	166000000
chr1	64460000	64580000
chr1	180420000	180640000
chr1	154240000	154620000
chr1	106900000	107620000
chr1	55240000	55400000
chr1	96820000	97760000
chr1	98580000	98740000
chr1	22480000	23300000
chr1	47180000	47280000
chr1	192740000	193140000
chr1	75940000	76500000
chr1	83040000	83200000
chr1	111520000	111640000
chr1	124060000	124660000
chr1	16960000	17120000
chr1	45840000	45960000
chr1	167660000	167920000
chr1	178980000	179180000
chr1	15260000	15600000
chr1	22380000	22500000
chr1	139500000	140060000
chr1	153080000	153440000
chr1	162760000	162880000
chr1	79440000	79640000
chr1	152840000	153100000
chr1	38780000	38880000
chr1	151080000	151320000
chr1	190420000	190560000
chr1	6280000	6400000
chr1	151840000	152100000
chr1	130800000	131060000
chr1	81320000	81420000
chr1	22400000	22580000
chr1	138320000	138760000
chr1	62720000	62940000
chr1	56100000	56220000
chr1	167920000	168440000
chr1	167700000	167840000
chr1	57640000	57960000
chr1	136020000	136240000
chr1	21160000	21280000
chr1	179640000	179740000
chr1	88320000	89220000
chr1	20920000	21200000
chr1	12940000	13680000
chr1	178960000	179140000
chr1	190980000	191080000
chr1	14720000	14900000
chr1	21420000	21960000
chr1	121240000	121400000
chr1	136760000	136960000
chr1	114040000	114160000
chr1	81300000	81540000
chr1	6400000	6940000
chr1	80860000	81300000
chr1	11100000	11620000
chr1	84160000	84280000
chr1	79760000	80540000
chr1	185560000	186160000
chr1	191180000	191280000
chr1	150500000	151020000
chr1	52940000	53040000
chr1	57000000	57220000
chr1	15700000	15860000
chr1	97860000	97980000
chr1	3460000	3600000
chr1	93100000	93440000
chr1	121940000	122060000
chr1	43300000	43680000
chr1	121580000	122440000
chr1	188900000	189020000
chr1	98380000	98540000
chr1	156040000	156640000
chr1	107340000	107560000
chr1	43820000	43920000
chr1	128360000	128840000
chr1	119680000	119800000
chr1	22360000	23280000
chr1	91520000	92480000
chr1	131060000	131280000
chr1	53880000	54360000
chr1	16440000	16620000
chr1	89520000	89640000
chr1	54660000	54760000
chr1	53900000	54260000
chr1	151020000	151440000
chr1	183420000	184220000
chr1	16440000	16680000
chr1	192620000	192720000
chr1	89220000	89540000
chr1	90260000	90380000
chr1	158680000	159160000
chr1	72140000	72240000
chr1	21980000	22200000
chr1	26920000	27020000
chr1	119160000	119420000
