chr10	116680000	116780000
chr10	118580000	118860000
chr10	94680000	94820000
chr10	87060000	87500000
chr10	90200000	90340000
chr10	45080000	45980000
chr10	77520000	77640000
chr10	42020000	42280000
chr10	69160000	69320000
chr10	106020000	106120000
chr10	96040000	96140000
chr10	95540000	95940000
chr10	8520000	8680000
chr10	6440000	6580000
chr10	28860000	28980000
chr10	90140000	90720000
chr10	8240000	8360000
chr10	117420000	117700000
chr10	118560000	119120000
chr10	26680000	26940000
chr10	61140000	61700000
chr10	86780000	86900000
chr10	17880000	18220000
chr10	23440000	23540000
chr10	79340000	79500000
chr10	117300000	117460000
chr10	76080000	76200000
chr10	33700000	33940000
chr10	63580000	64080000
chr10	20400000	20980000
chr10	126900000	128560000
chr10	94200000	94360000
chr10	42300000	42660000
chr10	84900000	85020000
chr10	27740000	28060000
chr10	36940000	37040000
chr10	128200000	128520000
chr10	8580000	8680000
chr10	33900000	34420000
chr10	42940000	43480000
chr10	19260000	19380000
chr10	123920000	124020000
chr10	27320000	27480000
chr10	8740000	9040000
chr10	97940000	98040000
chr10	102020000	102140000
chr10	112940000	113060000
chr10	89720000	90080000
chr10	31920000	32060000
chr10	30540000	30820000
chr10	31620000	31720000
chr10	67620000	67720000
chr10	22060000	22480000
chr10	24920000	25240000
chr10	114000000	114100000
chr10	21560000	22000000
chr10	117720000	118140000
chr10	77620000	77920000
chr10	67300000	67540000
chr10	96120000	96240000
chr10	70000000	70100000
chr10	13520000	14420000
chr10	60840000	61080000
chr10	69980000	70200000
chr10	44280000	44460000
chr10	42980000	43420000
chr10	95540000	95900000
chr10	50680000	50880000
chr10	91060000	91260000
chr10	53840000	54080000
chr10	62020000	62120000
chr10	19700000	19900000
chr10	94620000	94980000
chr10	88360000	88820000
chr10	5320000	5560000
chr10	86160000	86280000
chr10	53920000	54020000
chr10	91260000	93020000
chr10	89480000	89580000
chr10	116320000	116500000
chr10	43700000	43860000
chr10	120860000	121000000
chr10	74640000	74840000
chr10	18540000	18920000
chr10	97340000	97700000
chr10	10920000	11040000
chr10	114940000	115040000
chr10	8260000	8580000
chr10	9960000	10100000
chr10	116940000	117040000
chr10	13000000	13520000
chr10	70980000	71080000
chr10	50600000	50920000
chr10	99620000	100560000
chr10	53080000	53320000
chr10	39880000	40260000
chr10	119460000	119560000
chr10	40040000	40240000
chr10	103440000	103700000
chr10	41440000	41780000
chr10	18940000	19040000
chr10	59440000	59860000
chr10	92660000	93020000
chr10	116080000	116200000
chr10	110200000	110320000
chr10	109900000	110100000
chr10	89000000	89300000
chr10	88860000	89000000
chr10	76260000	76360000
chr10	17720000	17900000
chr10	40980000	41300000
chr10	74300000	74400000
chr10	29040000	29360000
chr10	103200000	103440000
chr10	6880000	7000000
chr10	105080000	105200000
chr10	119640000	119780000
chr10	19520000	19660000
chr10	100580000	102440000
chr10	96080000	96200000
chr10	72120000	72320000
chr10	88460000	88720000
chr10	22040000	22140000
chr10	123340000	123500000
chr10	49120000	49220000
chr10	49800000	50380000
chr10	43960000	44080000
chr10	14020000	14120000
chr10	5640000	5760000
chr10	21880000	22000000
chr10	45060000	45160000
chr10	88340000	88500000
chr10	20320000	20980000
chr10	78880000	79140000
chr10	10700000	10860000
chr10	117480000	117680000
chr10	82900000	83220000
chr10	127080000	127320000
chr10	28980000	29080000
chr10	41480000	41700000
chr10	117840000	117940000
chr10	70860000	70960000
chr10	61440000	61760000
chr10	13540000	13960000
chr10	122540000	122680000
chr10	85380000	85640000
chr10	75520000	76260000
chr10	94980000	95100000
chr10	7820000	8240000
chr10	64080000	64640000
chr10	86720000	86840000
chr10	28060000	28460000
chr10	27120000	27680000
chr10	75280000	75500000
chr10	77260000	77360000
chr10	63080000	63400000
chr10	78020000	78180000
chr10	5140000	5320000
chr10	10560000	11140000
chr10	18280000	18380000
chr10	121620000	122100000
chr10	114800000	115200000
chr10	112180000	112840000
chr10	50840000	51460000
chr10	103980000	104080000
chr10	41820000	41980000
chr10	71480000	71680000
chr10	111120000	111300000
chr10	104180000	104320000
chr10	115100000	115260000
chr10	111980000	112140000
chr10	15200000	15300000
chr10	13020000	13440000
chr10	40600000	40980000
chr10	117060000	117720000
chr10	6740000	6840000
chr10	76240000	76460000
chr10	83360000	83780000
chr10	93020000	93300000
chr10	94960000	95500000
chr10	23980000	24080000
chr10	79540000	79680000
chr10	71220000	71420000
chr10	41300000	41400000
chr10	52740000	53100000
chr10	86460000	86680000
chr10	105280000	105400000
chr10	50600000	50880000
chr10	85100000	85200000
chr10	73720000	73840000
chr10	106600000	106920000
chr10	116200000	116320000
chr10	89400000	89660000
chr10	118220000	118380000
chr10	76800000	77080000
chr10	10760000	10920000
chr10	52080000	52200000
chr10	56020000	56220000
chr10	118420000	118520000
chr10	109500000	109720000
chr10	9900000	10100000
chr10	53140000	53240000
chr10	77660000	77860000
chr10	31360000	31460000
chr10	60140000	60300000
chr10	84340000	84440000
chr10	28740000	28860000
chr10	108280000	108440000
chr10	85420000	85560000
chr10	89880000	90040000
chr10	126520000	126640000
chr10	82960000	83200000
chr10	18040000	18240000
chr10	86680000	86940000
chr10	96940000	97060000
chr10	83340000	83540000
chr10	21340000	22020000
chr10	94000000	94200000
chr10	117240000	117700000
chr10	77960000	78180000
chr10	45120000	45360000
chr10	91160000	91280000
chr10	85860000	85960000
chr10	127560000	127660000
chr10	90380000	90580000
chr10	73120000	73460000
chr10	21440000	22020000
chr10	45680000	45800000
chr10	103240000	103420000
chr10	92740000	92860000
chr10	125780000	125900000
chr10	90740000	90840000
chr10	7860000	8240000
chr10	99320000	99560000
chr10	88840000	88940000
chr10	28860000	29340000
chr10	11440000	11980000
chr10	9000000	9720000
chr10	67300000	67860000
chr10	115180000	115420000
chr10	30880000	31320000
chr10	8800000	8940000
chr10	90080000	90720000
chr10	5040000	5280000
chr10	94980000	95420000
chr10	67540000	67760000
chr10	105820000	106600000
chr10	9040000	9680000
chr10	5260000	5600000
chr10	28560000	28740000
chr10	109320000	109500000
chr10	52680000	53340000
chr10	51540000	51740000
chr10	84720000	84820000
chr10	86300000	86460000
chr10	96760000	96900000
chr10	22800000	23020000
chr10	105440000	105560000
chr10	25540000	26340000
chr10	108880000	109720000
chr10	78460000	78620000
chr10	66880000	67280000
chr10	121060000	121220000
chr10	89300000	89640000
chr10	25680000	26120000
chr10	90180000	90380000
chr10	5840000	6860000
chr10	95900000	96080000
chr10	94660000	94960000
chr10	39540000	39900000
chr10	64100000	64260000
chr10	7780000	8740000
chr10	43180000	43400000
chr10	8540000	8640000
chr10	110440000	110740000
chr10	42680000	42840000
chr10	94420000	94520000
chr10	51340000	51480000
chr10	72460000	72580000
chr10	115640000	115880000
chr10	39220000	39540000
chr10	67740000	67840000
chr10	78460000	79580000
chr10	5660000	5800000
chr10	100880000	100980000
chr10	98920000	99020000
chr10	43640000	43940000
chr10	21380000	21480000
chr10	5360000	5560000
chr10	90840000	91040000
chr10	39540000	39640000
chr10	120980000	121280000
chr10	117580000	117680000
chr10	107800000	108300000
chr10	34880000	34980000
chr10	6880000	7040000
chr10	67280000	67480000
chr10	111980000	112180000
chr10	110780000	110960000
chr10	83220000	83340000
chr10	52200000	52420000
chr10	119460000	119640000
chr10	89900000	90000000
chr10	13660000	13860000
chr10	78620000	78760000
chr10	62260000	62480000
chr10	37160000	37280000
chr10	115400000	116020000
chr10	15100000	15200000
chr10	9820000	10280000
chr10	107460000	107680000
chr10	10380000	10600000
chr10	83540000	83800000
chr10	74480000	74620000
chr10	75580000	75740000
chr10	128040000	128220000
chr10	33340000	33680000
chr10	18560000	18780000
chr10	107520000	107640000
chr10	115160000	115320000
chr10	76300000	76500000
chr10	98500000	98600000
chr10	85660000	85860000
chr10	82640000	82900000
chr10	7640000	7820000
chr10	10840000	11080000
chr10	107060000	107200000
chr10	93020000	93580000
chr10	110960000	111120000
chr10	127500000	127620000
chr10	61420000	61700000
chr10	49800000	50600000
chr10	85680000	85820000
chr10	41300000	41440000
chr10	84480000	84640000
chr10	21520000	22000000
chr10	45380000	45660000
chr10	86760000	86860000
chr10	22020000	22540000
chr10	22860000	23020000
chr10	78640000	79520000
chr10	94500000	94620000
chr10	111120000	111220000
chr10	69660000	69860000
chr10	105840000	105980000
chr10	27760000	27880000
chr10	22240000	22480000
chr10	62580000	62740000
chr10	27160000	27300000
chr10	115880000	116020000
chr10	82620000	82780000
chr10	107840000	108300000
chr10	40340000	40460000
chr10	70980000	71220000
chr10	64760000	65780000
chr10	24320000	24640000
chr10	21720000	22000000
chr10	87600000	88140000
chr10	111120000	111480000
chr10	107420000	107780000
chr10	102860000	103160000
chr10	51780000	52400000
chr10	32900000	33320000
chr10	74660000	74780000
chr10	4400000	5200000
chr10	24140000	24340000
chr10	124540000	124640000
chr10	77060000	77260000
chr10	116540000	116880000
chr10	70300000	71280000
chr10	51400000	51540000
chr10	5820000	7480000
chr10	95520000	96040000
chr10	5920000	6800000
chr10	36480000	36860000
chr10	28460000	28760000
chr10	75720000	75860000
chr10	8780000	9020000
chr10	61700000	61800000
chr10	10760000	10880000
chr10	14220000	14320000
chr10	116580000	116800000
chr10	66820000	67300000
chr10	87740000	87840000
chr10	126180000	126300000
chr10	118860000	119040000
chr10	82760000	83360000
chr10	97420000	97540000
chr10	43540000	44260000
chr10	18240000	18540000
chr10	13960000	14400000
chr10	89660000	90080000
chr10	26140000	26360000
chr10	69900000	70000000
chr10	43940000	44260000
chr10	90840000	90980000
chr10	46060000	46220000
chr10	51540000	51780000
chr10	94000000	94140000
chr10	18980000	19200000
chr10	95500000	96080000
chr10	117740000	117840000
chr10	128340000	128500000
chr10	105400000	105560000
chr10	108460000	108880000
chr10	60820000	61040000
chr10	7740000	8720000
chr10	50600000	52420000
chr10	29080000	29260000
chr10	13080000	13460000
chr10	83780000	84500000
chr10	93040000	93400000
chr10	30660000	30800000
chr10	73080000	73520000
chr10	92280000	92660000
chr10	10140000	10260000
chr10	117300000	117700000
chr10	11140000	11260000
chr10	22520000	22800000
chr10	33340000	33720000
chr10	37000000	37140000
chr10	14820000	15180000
chr10	121060000	121180000
chr10	28160000	28260000
chr10	116900000	117040000
chr10	26380000	26920000
chr10	74520000	74620000
chr10	38300000	38500000
chr10	73580000	73680000
chr10	11460000	11800000
chr10	100440000	100600000
chr10	45380000	45580000
chr10	8360000	8460000
chr10	99100000	99620000
chr10	111800000	111920000
chr10	127320000	127540000
chr10	71420000	73040000
chr10	95100000	95320000
chr10	119980000	120080000
chr10	30820000	31320000
chr10	60760000	61080000
chr10	73120000	73520000
chr10	115440000	115620000
chr10	107260000	107420000
chr10	27880000	28060000
chr10	56100000	56220000
chr10	69660000	69900000
chr10	59620000	59720000
chr10	14420000	14760000
chr10	91760000	91880000
chr10	42680000	42780000
chr10	36980000	37260000
chr10	95320000	95420000
chr10	96620000	96760000
chr10	128080000	128200000
chr10	41440000	41700000
chr10	122340000	122440000
chr10	20960000	21360000
chr10	68280000	69320000
chr10	122660000	122800000
chr10	121360000	121580000
chr10	36840000	37000000
chr10	96240000	96640000
chr10	93820000	93940000
chr10	36960000	37080000
chr10	23160000	23280000
chr10	122080000	122540000
chr10	41940000	42300000
chr10	23120000	23380000
chr10	64100000	64200000
chr10	110100000	110460000
chr10	85160000	85920000
chr10	20120000	20320000
chr10	87020000	87140000
chr10	22140000	22460000
chr10	73400000	73520000
chr10	4440000	5100000
chr10	18220000	18340000
chr10	54360000	54460000
chr10	93580000	93820000
chr10	7600000	7780000
chr10	29080000	29340000
chr10	107800000	107940000
chr10	24640000	24860000
chr10	64380000	64480000
chr10	9880000	10260000
chr10	75960000	76220000
chr10	121260000	121600000
chr10	12220000	12420000
chr10	70300000	70580000
chr10	11980000	12620000
chr10	78760000	79140000
chr10	62980000	63100000
chr10	121820000	122040000
chr10	122540000	123200000
chr10	25520000	25660000
chr10	115480000	115600000
chr10	21060000	21300000
chr10	38840000	39100000
chr10	119800000	120080000
chr10	18440000	18540000
chr10	42300000	42780000
chr10	19600000	19700000
chr10	107940000	108160000
chr10	77340000	77520000
chr10	28980000	29380000
chr10	99120000	100580000
chr10	107820000	108460000
chr10	124880000	125000000
chr10	116320000	116560000
chr10	33760000	33860000
chr10	41800000	42780000
chr10	89780000	90060000
chr10	50880000	51420000
chr10	68120000	68300000
chr10	89740000	89880000
chr10	88360000	88740000
chr10	55980000	56340000
chr10	84140000	84440000
chr10	39380000	39480000
chr10	8720000	8940000
chr10	123500000	123620000
chr10	87540000	88340000
chr10	39540000	39800000
chr10	17900000	18040000
chr10	114180000	114280000
chr10	82780000	82900000
chr10	5800000	5940000
chr10	70560000	70820000
chr10	14480000	14720000
chr10	11380000	12620000
chr10	90420000	90580000
chr10	96200000	96620000
chr10	24620000	24740000
chr10	29380000	30560000
chr10	65880000	65980000
chr10	19900000	20140000
chr10	85180000	85660000
chr10	88580000	88680000
chr10	73540000	74200000
chr10	89300000	89440000
chr10	85240000	85340000
chr10	26380000	26680000
chr10	14720000	15240000
chr10	19020000	19200000
chr10	62800000	62980000
chr10	95080000	95420000
chr10	115620000	115780000
chr10	87380000	87480000
chr10	49560000	49720000
chr10	24620000	24800000
chr10	103540000	103700000
chr10	38860000	39140000
chr10	119640000	120140000
chr10	118420000	118560000
chr10	61340000	61440000
chr10	111160000	111500000
chr10	40240000	40600000
chr10	121040000	121280000
chr10	123740000	123840000
chr10	42740000	42840000
chr10	44080000	44180000
chr10	12420000	12600000
chr10	119200000	119640000
chr10	126360000	126500000
chr10	31720000	32900000
chr10	33980000	34340000
chr10	60300000	60420000
chr10	102500000	102720000
chr10	67320000	67480000
chr10	61460000	61700000
chr10	122140000	122540000
chr10	11240000	11440000
chr10	62260000	62420000
chr10	106460000	106580000
chr10	88820000	89300000
chr10	11140000	11360000
chr10	87680000	87840000
chr10	84560000	85160000
chr10	33340000	33500000
chr10	45380000	45480000
chr10	101680000	102260000
chr10	28880000	29040000
chr10	5580000	5820000
chr10	103820000	103920000
chr10	117940000	118040000
chr10	90140000	90580000
chr10	109180000	109280000
chr10	117240000	117440000
chr10	54560000	54680000
chr10	78800000	79060000
chr10	98920000	99100000
chr10	102480000	102780000
chr10	109140000	109340000
chr10	22800000	23080000
chr10	94360000	94620000
chr10	66580000	66720000
chr10	110960000	111160000
chr10	27120000	27740000
chr10	32920000	33900000
chr10	61180000	61340000
chr10	9760000	10360000
chr10	28460000	28860000
chr10	50260000	50380000
chr10	5180000	5840000
chr10	78480000	79540000
chr10	125560000	125680000
chr10	28060000	28860000
chr10	63920000	64080000
chr10	61800000	62040000
chr10	10360000	11240000
chr10	46020000	46240000
chr10	108160000	108280000
chr10	86720000	87020000
chr10	95900000	96120000
chr10	112360000	112480000
chr10	102440000	102860000
chr10	60880000	61020000
chr10	19220000	19700000
chr10	50080000	50200000
chr10	49640000	49780000
chr10	85220000	85380000
chr10	15520000	15640000
chr10	128200000	128300000
chr10	69440000	69660000
chr10	53580000	53860000
chr10	79180000	79340000
chr10	97060000	97160000
chr10	50920000	51360000
chr10	43600000	43700000
chr10	29020000	30600000
chr10	126600000	126780000
chr10	110780000	111120000
chr10	30600000	31460000
chr10	124020000	124120000
chr10	27880000	27980000
chr10	107920000	108280000
chr10	99640000	100020000
chr10	117060000	117180000
chr10	12620000	13000000
chr10	27680000	27780000
chr10	112900000	113040000
chr10	85380000	85560000
chr10	43000000	43200000
chr10	29340000	29460000
chr10	23780000	24160000
chr10	42040000	42220000
chr10	8260000	8640000
chr10	14480000	14580000
chr10	59880000	60140000
chr10	39800000	39940000
chr10	29360000	29540000
chr10	122800000	123020000
chr10	31760000	31880000
chr10	107940000	108220000
chr10	77260000	77520000
chr10	83660000	83780000
chr10	43540000	43940000
chr10	60300000	61120000
chr10	83820000	84000000
chr10	9780000	9900000
chr10	107960000	108080000
chr10	12100000	12200000
chr10	125240000	125400000
chr10	120880000	121060000
chr10	52080000	52440000
chr10	8740000	9760000
chr10	100020000	100180000
chr10	40300000	40540000
chr10	116320000	116900000
chr10	30980000	31420000
chr10	40260000	40540000
chr10	37400000	39100000
chr10	67360000	67460000
chr10	120200000	120380000
chr10	100200000	100420000
chr10	106920000	107760000
chr10	63400000	63580000
chr10	121760000	122040000
chr10	41820000	41940000
chr10	119820000	119980000
chr10	19240000	19560000
chr10	88140000	88320000
chr10	74920000	75180000
chr10	53340000	53540000
chr10	41440000	41540000
chr10	115320000	115440000
chr10	84140000	84260000
chr10	33500000	33700000
chr10	25500000	26360000
chr10	74680000	74840000
chr10	126880000	127080000
chr10	31300000	31460000
chr10	114440000	114800000
chr10	68880000	69180000
chr10	78460000	79680000
chr10	93480000	93580000
chr10	125100000	125200000
chr10	118740000	118860000
chr10	89320000	89680000
chr10	69860000	69980000
chr10	61460000	61600000
chr10	22540000	23080000
chr10	112840000	113000000
chr10	31460000	31720000
chr10	75980000	76260000
chr10	6040000	6740000
chr10	4440000	4600000
chr10	39160000	39540000
chr10	120240000	120880000
chr10	109000000	109140000
chr10	118140000	118560000
chr10	63140000	63320000
chr10	52680000	53100000
chr10	86020000	86480000
chr10	30820000	30980000
chr10	59360000	59880000
chr10	117060000	117220000
chr10	18920000	19220000
chr10	11340000	11460000
chr10	123960000	124220000
chr10	95140000	95240000
chr10	21080000	21180000
chr10	77400000	77500000
chr10	14480000	14660000
chr10	76860000	76980000
chr10	70360000	70460000
chr10	114400000	114800000
chr10	79680000	79960000
chr10	70180000	70300000
chr10	13960000	14220000
chr10	124640000	124740000
chr10	36540000	36780000
chr10	123100000	123200000
chr10	25740000	25880000
chr10	102480000	102600000
chr10	83940000	84460000
chr10	119120000	119240000
chr10	67840000	68000000
chr10	53320000	53580000
chr10	60500000	60700000
chr10	92320000	92480000
chr10	4600000	5040000
chr10	61140000	61440000
chr10	30440000	30560000
chr10	97700000	99100000
chr10	89640000	89740000
chr10	28260000	28360000
chr10	68980000	69160000
chr10	111280000	111500000
chr10	69440000	69900000
chr10	24840000	25260000
chr10	19560000	19700000
chr10	99260000	99580000
chr10	6860000	7100000
chr10	61080000	61180000
chr10	128300000	128500000
chr10	76520000	76740000
chr10	36980000	37320000
chr10	78580000	79680000
chr10	46100000	46200000
chr10	64100000	64480000
chr10	118140000	118420000
chr10	7460000	7620000
chr10	45920000	46020000
chr10	56020000	56300000
chr10	78840000	79040000
chr10	76560000	76740000
chr10	8940000	9760000
chr10	63720000	63860000
chr10	13560000	14400000
chr10	28580000	28680000
chr10	6140000	6280000
chr10	41700000	41820000
chr10	42760000	42960000
chr10	44800000	44920000
chr10	109000000	109340000
chr10	94200000	94620000
chr10	18220000	18380000
chr10	45380000	46000000
chr10	68040000	68140000
chr10	84640000	85020000
chr10	34460000	34600000
chr10	43600000	43860000
chr10	45800000	45900000
chr10	94800000	94940000
chr10	26460000	26680000
chr10	76440000	76760000
chr10	45660000	45960000
chr10	54840000	54960000
chr10	109720000	109900000
chr10	102860000	103220000
chr10	111300000	111420000
chr10	25240000	25540000
chr10	120220000	120420000
chr10	104980000	105080000
chr10	117840000	118120000
chr10	90580000	90720000
chr10	70600000	70720000
chr10	85960000	86520000
chr10	52440000	52680000
chr10	8360000	8520000
chr10	72880000	72980000
chr10	53920000	54060000
chr10	106940000	107260000
chr10	73520000	73680000
chr10	6580000	6680000
chr10	86500000	86600000
chr10	77600000	77980000
chr10	125400000	125500000
chr10	44260000	45060000
chr10	128340000	128560000
chr10	104700000	104800000
chr10	19380000	19520000
chr10	13860000	13960000
chr10	121680000	122060000
chr10	36860000	36960000
chr10	45060000	45380000
chr10	5140000	5580000
chr10	18400000	18560000
chr10	76440000	76560000
chr10	77980000	78460000
chr10	122640000	123200000
chr10	63580000	63920000
chr10	11500000	11800000
chr10	99620000	100500000
chr10	76620000	76740000
chr10	87140000	87520000
chr10	85020000	85120000
chr10	74920000	75520000
chr10	127680000	128040000
chr10	127740000	128020000
chr10	75520000	75880000
chr10	34420000	35300000
chr10	74060000	74180000
chr10	17720000	18220000
chr10	77720000	77840000
chr10	125660000	126340000
chr10	78160000	78460000
chr10	118140000	118380000
chr10	65780000	66820000
chr10	40980000	41440000
chr10	66580000	66820000
chr10	105860000	106460000
chr10	116000000	116220000
chr10	19380000	19480000
chr10	8240000	8720000
chr10	102240000	102420000
chr10	28980000	29340000
chr10	84640000	85060000
chr10	20140000	20280000
chr10	39640000	39740000
chr10	31480000	31640000
chr10	4440000	5140000
chr10	31520000	31620000
chr10	49080000	49800000
chr10	109140000	109280000
chr10	114800000	115120000
chr10	6020000	6780000
chr10	90720000	91200000
chr10	61800000	62260000
chr10	83780000	84560000
chr10	79140000	79520000
chr10	75880000	75980000
chr10	69440000	69980000
chr10	90720000	91060000
chr10	60300000	60760000
chr10	19900000	20260000
chr10	74200000	74480000
chr10	112260000	112360000
chr10	100440000	100560000
chr10	73120000	73400000
chr10	69500000	69660000
chr10	112820000	112940000
chr10	121280000	121640000
chr10	10380000	11200000
chr10	5820000	6040000
chr10	72660000	73000000
chr10	124120000	124220000
chr10	105580000	105820000
chr10	55100000	55200000
chr10	93820000	94000000
chr10	108460000	109760000
chr10	69160000	69280000
chr10	111500000	111980000
chr10	21480000	21580000
chr10	25620000	26160000
chr10	20280000	20440000
chr10	75520000	75980000
chr10	60400000	60760000
chr10	33500000	33660000
chr10	99760000	99860000
chr10	42300000	42740000
chr10	63020000	63120000
chr10	97700000	97820000
chr10	67300000	67800000
chr10	50380000	50560000
chr10	100600000	100740000
chr10	5020000	5140000
chr10	91640000	91740000
chr10	25880000	26000000
chr10	126340000	126540000
chr10	13560000	13880000
chr10	70820000	70980000
chr10	125560000	125720000
chr10	60760000	61140000
chr10	84580000	85060000
chr10	91060000	91180000
chr10	84620000	85140000
chr10	111560000	111960000
chr10	51780000	52080000
chr10	87020000	87540000
chr10	45480000	45580000
chr10	31800000	31920000
chr10	30000000	30120000
chr10	82900000	83320000
chr10	73520000	74480000
chr10	12700000	12920000
chr10	106920000	107420000
chr10	44460000	45000000
chr10	118860000	119080000
chr10	128300000	128540000
chr10	8100000	8220000
chr10	116920000	117220000
chr10	8800000	8900000
chr10	110460000	110580000
chr10	68000000	68140000
chr10	32700000	32860000
chr10	105580000	105720000
chr10	68280000	68440000
chr10	78740000	78880000
chr10	53360000	53460000
chr10	102740000	102840000
chr10	120880000	121280000
chr10	79380000	79500000
chr10	22800000	22940000
chr10	69980000	70300000
chr10	12220000	12620000
